00:00:02.338020 VirtualBox GUI VM Selector Window 6.1.26 r145957 linux.amd64 (Jul 29 2021 12:15:28) release log
00:00:02.338025 Log opened 2021-10-22T00:07:04.986980000Z
00:00:02.338027 Build Type: release
00:00:02.338032 OS Product: Linux
00:00:02.338035 OS Release: 5.14.12-arch1-1
00:00:02.338038 OS Version: #1 SMP PREEMPT Wed, 13 Oct 2021 16:58:16 +0000
00:00:02.338084 DMI Product Name: HP Notebook
00:00:02.338106 DMI Product Version: Type1ProductConfigId
00:00:02.338123 Firmware type: BIOS
00:00:02.338202 Host RAM: 7872MB (7.6GB) total, 6134MB (5.9GB) available
00:00:02.338209 Executable: /usr/lib/virtualbox/VirtualBox
00:00:02.338211 Process ID: 6903
00:00:02.338212 Package type: LINUX_64BITS_GENERIC (OSE)
00:00:02.338274 Qt version: 5.15.2
00:00:02.628794 GUI: UIMediumEnumerator: Medium-enumeration started...
00:00:05.548537 GUI: UIDesktopWidgetWatchdog::sltHandleHostScreenAvailableGeometryCalculated: Screen 0 work area is actually resized to: -2x-2 x 1362x370
00:00:05.554501 GUI: UIMediumEnumerator: Medium-enumeration finished!
00:04:39.075513 GUI: UIMediumEnumerator: Medium-enumeration finished!
81:02:54.520782 ERROR [COM]: aRC=NS_ERROR_UNEXPECTED (0x8000ffff) aIID={c0447716-ff5a-4795-b57a-ecd5fffa18a4} aComponent={SessionWrap} aText={The session is not locked (session state: Unlocked)}, preserve=false aResultDetail=0
81:02:54.539840 Log rotated - Log started 2021-10-22T00:07:04.986980000Z
