00:00:02.659192 VirtualBox GUI VM Selector Window 6.1.26 r145957 linux.amd64 (Jul 29 2021 12:15:28) release log
00:00:02.659197 Log opened 2021-10-26T00:36:21.062765000Z
00:00:02.659199 Build Type: release
00:00:02.659204 OS Product: Linux
00:00:02.659207 OS Release: 5.14.12-arch1-1
00:00:02.659210 OS Version: #1 SMP PREEMPT Wed, 13 Oct 2021 16:58:16 +0000
00:00:02.659253 DMI Product Name: HP Notebook
00:00:02.659276 DMI Product Version: Type1ProductConfigId
00:00:02.659292 Firmware type: BIOS
00:00:02.659372 Host RAM: 7872MB (7.6GB) total, 6839MB (6.6GB) available
00:00:02.659379 Executable: /usr/lib/virtualbox/VirtualBox
00:00:02.659381 Process ID: 1930
00:00:02.659382 Package type: LINUX_64BITS_GENERIC (OSE)
00:00:02.659494 Qt version: 5.15.2
00:00:02.962081 GUI: UIMediumEnumerator: Medium-enumeration started...
00:00:05.674427 GUI: UIDesktopWidgetWatchdog::sltHandleHostScreenAvailableGeometryCalculated: Screen 0 work area is actually resized to: -2x-2 x 1362x370
00:00:05.686210 GUI: UIMediumEnumerator: Medium-enumeration finished!
00:04:07.772801 GUI: UIMediumEnumerator: Medium-enumeration started...
00:04:07.841391 GUI: UIMediumEnumerator: Medium-enumeration finished!
00:21:11.302846 GUI: UIMediumEnumerator: Medium-enumeration finished!
00:21:50.245756 GUI: UIMediumEnumerator: Medium-enumeration finished!
00:21:57.233689 GUI: UIMediumEnumerator: Medium-enumeration finished!
00:22:28.692945 GUI: UIMediumEnumerator: Medium-enumeration finished!
00:23:05.268064 GUI: UIMediumEnumerator: Medium-enumeration finished!
00:23:22.071996 GUI: UIMediumEnumerator: Medium-enumeration finished!
00:23:27.144278 GUI: UIMediumEnumerator: Medium-enumeration finished!
00:23:27.355805 GUI: UIMediumEnumerator: Medium-enumeration finished!
00:23:27.701239 GUI: UIMediumEnumerator: Medium-enumeration finished!
00:23:27.756077 GUI: UIMediumEnumerator: Medium-enumeration finished!
00:23:40.721301 GUI: UIMediumEnumerator: Medium-enumeration finished!
00:23:43.800179 GUI: UIMediumEnumerator: Medium-enumeration finished!
00:23:45.037113 GUI: UIMediumEnumerator: Medium-enumeration finished!
00:23:45.851369 GUI: UIMediumEnumerator: Medium-enumeration finished!
20:13:20.374955 GUI: UIMediumEnumerator: Medium-enumeration finished!
20:13:20.955702 Log rotated - Log started 2021-10-26T00:36:21.062765000Z
