00:00:00.344018 VirtualBox GUI VM Selector Window 6.1.26 r145957 linux.amd64 (Jul 29 2021 12:15:28) release log
00:00:00.344021 Log opened 2021-10-20T01:39:17.912118000Z
00:00:00.344022 Build Type: release
00:00:00.344024 OS Product: Linux
00:00:00.344025 OS Release: 5.14.9-arch2-1
00:00:00.344026 OS Version: #1 SMP PREEMPT Fri, 01 Oct 2021 19:03:20 +0000
00:00:00.344047 DMI Product Name: HP Notebook
00:00:00.344056 DMI Product Version: Type1ProductConfigId
00:00:00.344064 Firmware type: BIOS
00:00:00.344101 Host RAM: 7872MB (7.6GB) total, 5155MB (5.0GB) available
00:00:00.344104 Executable: /usr/lib/virtualbox/VirtualBox
00:00:00.344104 Process ID: 21252
00:00:00.344105 Package type: LINUX_64BITS_GENERIC (OSE)
00:00:00.344133 Qt version: 5.15.2
00:00:00.408255 GUI: UIMediumEnumerator: Medium-enumeration started...
00:00:01.183664 GUI: UIDesktopWidgetWatchdog::sltHandleHostScreenAvailableGeometryCalculated: Screen 0 work area is actually resized to: -2x247 x 1362x246
00:00:01.190317 GUI: UIMediumEnumerator: Medium-enumeration finished!
00:00:01.205536 GUI: UIMediumEnumerator: Medium-enumeration finished!
00:00:04.525477 GUI: UIMediumEnumerator: Medium-enumeration finished!
