00:00:00.846581 VirtualBox GUI VM Selector Window 6.1.26 r145957 linux.amd64 (Jul 29 2021 12:15:28) release log
00:00:00.846584 Log opened 2021-10-25T22:30:50.400820000Z
00:00:00.846584 Build Type: release
00:00:00.846587 OS Product: Linux
00:00:00.846588 OS Release: 5.14.12-arch1-1
00:00:00.846589 OS Version: #1 SMP PREEMPT Wed, 13 Oct 2021 16:58:16 +0000
00:00:00.846612 DMI Product Name: HP Notebook
00:00:00.846622 DMI Product Version: Type1ProductConfigId
00:00:00.846630 Firmware type: BIOS
00:00:00.846667 Host RAM: 7872MB (7.6GB) total, 5108MB (4.9GB) available
00:00:00.846670 Executable: /usr/lib/virtualbox/VirtualBox
00:00:00.846671 Process ID: 39056
00:00:00.846672 Package type: LINUX_64BITS_GENERIC (OSE)
00:00:00.846700 Qt version: 5.15.2
00:00:00.970522 GUI: UIMediumEnumerator: Medium-enumeration started...
00:00:01.801017 GUI: UIDesktopWidgetWatchdog::sltHandleHostScreenAvailableGeometryCalculated: Screen 0 work area is actually resized to: -2x-2 x 746x745
00:00:01.802568 GUI: UIMediumEnumerator: Medium-enumeration finished!
