81:02:54.540208 Log continuation - Log started 2021-10-22T00:07:04.986980000Z
81:02:58.196868 GUI: UIMediumEnumerator: Medium-enumeration finished!
81:02:59.965061 GUI: UIMediumEnumerator: Medium-enumeration finished!
81:03:11.756583 GUI: UIMediumEnumerator: Medium-enumeration finished!
81:03:12.094501 GUI: UIMediumEnumerator: Medium-enumeration finished!
81:03:15.629251 GUI: UIMediumEnumerator: Medium-enumeration finished!
81:44:05.574265 GUI: UIMediumEnumerator: Medium-enumeration finished!
81:44:06.000845 GUI: UIMediumEnumerator: Medium-enumeration finished!
81:48:09.874873 GUI: UIMediumEnumerator: Medium-enumeration finished!
