00:00:00.417708 VirtualBox GUI VM Selector Window 6.1.26 r145957 linux.amd64 (Jul 29 2021 12:15:28) release log
00:00:00.417711 Log opened 2021-10-25T22:18:01.617727000Z
00:00:00.417711 Build Type: release
00:00:00.417714 OS Product: Linux
00:00:00.417715 OS Release: 5.14.12-arch1-1
00:00:00.417716 OS Version: #1 SMP PREEMPT Wed, 13 Oct 2021 16:58:16 +0000
00:00:00.417738 DMI Product Name: HP Notebook
00:00:00.417748 DMI Product Version: Type1ProductConfigId
00:00:00.417756 Firmware type: BIOS
00:00:00.417793 Host RAM: 7872MB (7.6GB) total, 5066MB (4.9GB) available
00:00:00.417797 Executable: /usr/lib/virtualbox/VirtualBox
00:00:00.417797 Process ID: 38612
00:00:00.417798 Package type: LINUX_64BITS_GENERIC (OSE)
00:00:00.417823 Qt version: 5.15.2
00:00:00.457358 GUI: UIMediumEnumerator: Medium-enumeration started...
00:00:01.301291 GUI: UIDesktopWidgetWatchdog::sltHandleHostScreenAvailableGeometryCalculated: Screen 0 work area is actually resized to: 748x-2 x 612x370
00:00:01.310805 GUI: UIMediumEnumerator: Medium-enumeration finished!
