00:00:10.355467 VirtualBox GUI VM Selector Window 6.1.26 r145957 linux.amd64 (Jul 29 2021 12:15:28) release log
00:00:10.355470 Log opened 2021-10-20T02:05:53.815833000Z
00:00:10.355471 Build Type: release
00:00:10.355473 OS Product: Linux
00:00:10.355474 OS Release: 5.14.12-arch1-1
00:00:10.355475 OS Version: #1 SMP PREEMPT Wed, 13 Oct 2021 16:58:16 +0000
00:00:10.355496 DMI Product Name: HP Notebook
00:00:10.355506 DMI Product Version: Type1ProductConfigId
00:00:10.355513 Firmware type: BIOS
00:00:10.355549 Host RAM: 7872MB (7.6GB) total, 7367MB (7.1GB) available
00:00:10.355556 Executable: /usr/lib/virtualbox/VirtualBox
00:00:10.355556 Process ID: 832
00:00:10.355557 Package type: LINUX_64BITS_GENERIC (OSE)
00:00:10.355587 Qt version: 5.15.2
00:00:11.587312 GUI: UIMediumEnumerator: Medium-enumeration started...
00:00:21.436498 GUI: UIInvisibleWindow::sltFallback: Move event haven't came. Screen: 0, work area: 0x0 x 1366x768
00:00:21.436527 GUI: UIDesktopWidgetWatchdog::sltHandleHostScreenAvailableGeometryCalculated: Screen 0 work area is actually resized to: 0x0 x 1366x768
00:00:21.548553 GUI: UIMediumEnumerator: Medium-enumeration finished!
00:02:16.909565 GUI: UIMediumEnumerator: Medium-enumeration finished!
00:02:26.982235 GUI: UIMediumEnumerator: Medium-enumeration finished!
00:02:30.970489 GUI: UIMediumEnumerator: Medium-enumeration finished!
