00:00:00.377380 VirtualBox GUI VM Selector Window 6.1.26 r145957 linux.amd64 (Jul 29 2021 12:15:28) release log
00:00:00.377397 Log opened 2021-10-25T22:18:26.842123000Z
00:00:00.377398 Build Type: release
00:00:00.377402 OS Product: Linux
00:00:00.377404 OS Release: 5.14.12-arch1-1
00:00:00.377405 OS Version: #1 SMP PREEMPT Wed, 13 Oct 2021 16:58:16 +0000
00:00:00.377439 DMI Product Name: HP Notebook
00:00:00.377449 DMI Product Version: Type1ProductConfigId
00:00:00.377458 Firmware type: BIOS
00:00:00.377496 Host RAM: 7872MB (7.6GB) total, 5045MB (4.9GB) available
00:00:00.377499 Executable: /usr/lib/virtualbox/VirtualBox
00:00:00.377500 Process ID: 38678
00:00:00.377501 Package type: LINUX_64BITS_GENERIC (OSE)
00:00:00.377548 Qt version: 5.15.2
00:00:00.418490 GUI: UIMediumEnumerator: Medium-enumeration started...
00:00:01.139153 GUI: UIDesktopWidgetWatchdog::sltHandleHostScreenAvailableGeometryCalculated: Screen 0 work area is actually resized to: 748x-2 x 612x370
00:00:01.145845 GUI: UIMediumEnumerator: Medium-enumeration finished!
