00:00:00.192811 VirtualBox GUI VM Selector Window 6.1.26 r145957 linux.amd64 (Jul 29 2021 12:15:28) release log
00:00:00.192813 Log opened 2021-10-20T01:43:23.278653000Z
00:00:00.192814 Build Type: release
00:00:00.192816 OS Product: Linux
00:00:00.192817 OS Release: 5.14.9-arch2-1
00:00:00.192818 OS Version: #1 SMP PREEMPT Fri, 01 Oct 2021 19:03:20 +0000
00:00:00.192838 DMI Product Name: HP Notebook
00:00:00.192847 DMI Product Version: Type1ProductConfigId
00:00:00.192854 Firmware type: BIOS
00:00:00.192891 Host RAM: 7872MB (7.6GB) total, 5371MB (5.2GB) available
00:00:00.192894 Executable: /usr/lib/virtualbox/VirtualBox
00:00:00.192895 Process ID: 21386
00:00:00.192895 Package type: LINUX_64BITS_GENERIC (OSE)
00:00:00.192924 Qt version: 5.15.2
00:00:00.230734 GUI: UIMediumEnumerator: Medium-enumeration started...
00:00:00.912266 GUI: UIDesktopWidgetWatchdog::sltHandleHostScreenAvailableGeometryCalculated: Screen 0 work area is actually resized to: -2x247 x 1362x246
00:00:00.913104 GUI: UIMediumEnumerator: Medium-enumeration finished!
00:00:00.937186 GUI: UIMediumEnumerator: Medium-enumeration finished!
00:00:04.566465 GUI: UIMediumEnumerator: Medium-enumeration finished!
