00:00:00.000826 main     VirtualBox XPCOM Server 6.1.26 r145957 linux.amd64 (Jul 29 2021 12:15:28) release log
00:00:00.000830 main     Log opened 2021-10-25T22:30:50.114148000Z
00:00:00.000831 main     Build Type: release
00:00:00.000835 main     OS Product: Linux
00:00:00.000837 main     OS Release: 5.14.12-arch1-1
00:00:00.000839 main     OS Version: #1 SMP PREEMPT Wed, 13 Oct 2021 16:58:16 +0000
00:00:00.000868 main     DMI Product Name: HP Notebook
00:00:00.000884 main     DMI Product Version: Type1ProductConfigId
00:00:00.000895 main     Firmware type: BIOS
00:00:00.000949 main     Host RAM: 7872MB (7.6GB) total, 5126MB (5.0GB) available
00:00:00.000954 main     Executable: /usr/lib/virtualbox/VBoxSVC
00:00:00.000955 main     Process ID: 39078
00:00:00.000956 main     Package type: LINUX_64BITS_GENERIC (OSE)
00:00:00.003417 main     IPC socket path: /tmp/.vbox-alex-ipc/ipcd
00:00:00.110363 nspr-2   VirtualBox: object creation starts
00:00:00.110523 nspr-2   Home directory: '/home/alex/.config/VirtualBox'
00:00:00.110859 nspr-2   Loading settings file "/home/alex/.config/VirtualBox/VirtualBox.xml" with version "1.14-linux"
00:00:00.131801 nspr-2   HostDnsMonitor: initializing
00:00:00.132122 nspr-2   NAT: resolv.conf: nameserver 75.75.75.75
00:00:00.132137 nspr-2   NAT: resolv.conf: nameserver 75.75.76.76
00:00:00.132142 nspr-2   NAT: resolv.conf: nameserver 2001:558:feed::1
00:00:00.132147 nspr-2   NAT: resolv.conf: too many nameserver lines, ignoring 2001:558:feed::2
00:00:00.132158 nspr-2   HostDnsMonitor: updating information
00:00:00.132174 nspr-2   HostDnsMonitor: old information
00:00:00.132177 nspr-2     no server entries
00:00:00.132180 nspr-2     no domain set
00:00:00.132183 nspr-2     no search string entries
00:00:00.132186 nspr-2   HostDnsMonitor: new information
00:00:00.132189 nspr-2     server 1: 75.75.75.75
00:00:00.132193 nspr-2     server 2: 75.75.76.76
00:00:00.132195 nspr-2     server 3: 2001:558:feed::1
00:00:00.132199 nspr-2     domain: hsd1.md.comcast.net
00:00:00.132202 nspr-2     search string 1: hsd1.md.comcast.net
00:00:00.134851 nspr-2   VD: VDInit finished with VINF_SUCCESS
00:00:00.134990 nspr-2   ERROR [COM]: aRC=NS_ERROR_FAILURE (0x80004005) aIID={027bc463-929c-40e8-bf16-fea557cd8e7e} aComponent={SystemPropertiesWrap} aText={Cannot determine default Guest Additions ISO location. Most likely they are not available}, preserve=false aResultDetail=0
00:00:00.188861 nspr-2   Loading settings file "/home/alex/VirtualBox VMs/HackingDistro/HackingDistro.vbox" with version "1.16-linux"
00:00:00.189468 nspr-2   Loading settings file "/home/alex/VirtualBox VMs/Kali-Linux-2021.2-virtualbox-amd64/Kali-Linux-2021.2-virtualbox-amd64.vbox" with version "1.16-linux"
00:00:00.189900 nspr-2   Loading settings file "/home/alex/VirtualBox VMs/Mr Robot 1/Mr Robot 1.vbox" with version "1.16-linux"
00:00:00.190494 nspr-2   VirtualBox: object created
00:00:01.248163 nspr-3   WARNING [COM]: aRC=NS_ERROR_FAILURE (0x80004005) aIID={16ced992-5fdc-4aba-aff5-6a39bbd7c38b} aComponent={HostWrap} aText={VirtualBox is not currently allowed to access USB devices.  You can change this by adding your user to the 'vboxusers' group.  Please see the user manual for a more detailed explanation}, preserve=true  aResultDetail=0
00:00:01.565709 nspr-4   WARNING [COM]: aRC=NS_ERROR_FAILURE (0x80004005) aIID={16ced992-5fdc-4aba-aff5-6a39bbd7c38b} aComponent={HostWrap} aText={VirtualBox is not currently allowed to access USB devices.  You can change this by adding your user to the 'vboxusers' group.  Please see the user manual for a more detailed explanation}, preserve=true  aResultDetail=0
00:00:01.567547 nspr-3   WARNING [COM]: aRC=NS_ERROR_FAILURE (0x80004005) aIID={16ced992-5fdc-4aba-aff5-6a39bbd7c38b} aComponent={HostWrap} aText={VirtualBox is not currently allowed to access USB devices.  You can change this by adding your user to the 'vboxusers' group.  Please see the user manual for a more detailed explanation}, preserve=true  aResultDetail=0
