00:00:00.000431 main     VirtualBox XPCOM Server 6.1.26 r145957 linux.amd64 (Jul 29 2021 12:15:28) release log
00:00:00.000434 main     Log opened 2021-10-25T22:18:01.397772000Z
00:00:00.000435 main     Build Type: release
00:00:00.000437 main     OS Product: Linux
00:00:00.000439 main     OS Release: 5.14.12-arch1-1
00:00:00.000440 main     OS Version: #1 SMP PREEMPT Wed, 13 Oct 2021 16:58:16 +0000
00:00:00.000461 main     DMI Product Name: HP Notebook
00:00:00.000470 main     DMI Product Version: Type1ProductConfigId
00:00:00.000477 main     Firmware type: BIOS
00:00:00.000513 main     Host RAM: 7872MB (7.6GB) total, 5070MB (4.9GB) available
00:00:00.000516 main     Executable: /usr/lib/virtualbox/VBoxSVC
00:00:00.000517 main     Process ID: 38634
00:00:00.000517 main     Package type: LINUX_64BITS_GENERIC (OSE)
00:00:00.002717 main     IPC socket path: /tmp/.vbox-alex-ipc/ipcd
00:00:00.110633 nspr-2   VirtualBox: object creation starts
00:00:00.110796 nspr-2   Home directory: '/home/alex/.config/VirtualBox'
00:00:00.111266 nspr-2   Loading settings file "/home/alex/.config/VirtualBox/VirtualBox.xml" with version "1.14-linux"
00:00:00.119538 nspr-2   HostDnsMonitor: initializing
00:00:00.119731 nspr-2   NAT: resolv.conf: nameserver 75.75.75.75
00:00:00.119743 nspr-2   NAT: resolv.conf: nameserver 75.75.76.76
00:00:00.119748 nspr-2   NAT: resolv.conf: nameserver 2001:558:feed::1
00:00:00.119754 nspr-2   NAT: resolv.conf: too many nameserver lines, ignoring 2001:558:feed::2
00:00:00.119764 nspr-2   HostDnsMonitor: updating information
00:00:00.119779 nspr-2   HostDnsMonitor: old information
00:00:00.119783 nspr-2     no server entries
00:00:00.119786 nspr-2     no domain set
00:00:00.119788 nspr-2     no search string entries
00:00:00.119792 nspr-2   HostDnsMonitor: new information
00:00:00.119794 nspr-2     server 1: 75.75.75.75
00:00:00.119798 nspr-2     server 2: 75.75.76.76
00:00:00.119801 nspr-2     server 3: 2001:558:feed::1
00:00:00.119804 nspr-2     domain: hsd1.md.comcast.net
00:00:00.119807 nspr-2     search string 1: hsd1.md.comcast.net
00:00:00.122420 nspr-2   VD: VDInit finished with VINF_SUCCESS
00:00:00.122528 nspr-2   ERROR [COM]: aRC=NS_ERROR_FAILURE (0x80004005) aIID={027bc463-929c-40e8-bf16-fea557cd8e7e} aComponent={SystemPropertiesWrap} aText={Cannot determine default Guest Additions ISO location. Most likely they are not available}, preserve=false aResultDetail=0
00:00:00.151771 nspr-2   Loading settings file "/home/alex/VirtualBox VMs/HackingDistro/HackingDistro.vbox" with version "1.16-linux"
00:00:00.152399 nspr-2   Loading settings file "/home/alex/VirtualBox VMs/Kali-Linux-2021.2-virtualbox-amd64/Kali-Linux-2021.2-virtualbox-amd64.vbox" with version "1.16-linux"
00:00:00.152837 nspr-2   Loading settings file "/home/alex/VirtualBox VMs/Mr Robot 1/Mr Robot 1.vbox" with version "1.16-linux"
00:00:00.153365 nspr-2   VirtualBox: object created
00:00:01.115111 nspr-2   WARNING [COM]: aRC=NS_ERROR_FAILURE (0x80004005) aIID={16ced992-5fdc-4aba-aff5-6a39bbd7c38b} aComponent={HostWrap} aText={VirtualBox is not currently allowed to access USB devices.  You can change this by adding your user to the 'vboxusers' group.  Please see the user manual for a more detailed explanation}, preserve=true  aResultDetail=0
00:00:01.431589 nspr-3   WARNING [COM]: aRC=NS_ERROR_FAILURE (0x80004005) aIID={16ced992-5fdc-4aba-aff5-6a39bbd7c38b} aComponent={HostWrap} aText={VirtualBox is not currently allowed to access USB devices.  You can change this by adding your user to the 'vboxusers' group.  Please see the user manual for a more detailed explanation}, preserve=true  aResultDetail=0
00:00:01.434009 nspr-3   WARNING [COM]: aRC=NS_ERROR_FAILURE (0x80004005) aIID={16ced992-5fdc-4aba-aff5-6a39bbd7c38b} aComponent={HostWrap} aText={VirtualBox is not currently allowed to access USB devices.  You can change this by adding your user to the 'vboxusers' group.  Please see the user manual for a more detailed explanation}, preserve=true  aResultDetail=0
00:00:08.001540 nspr-3   Saving settings file "/home/alex/.config/VirtualBox/VirtualBox.xml" with version "1.14-linux"
00:00:08.120608 nspr-3   Saving settings file "/home/alex/.config/VirtualBox/VirtualBox.xml" with version "1.14-linux"
00:00:08.226005 nspr-4   Saving settings file "/home/alex/.config/VirtualBox/VirtualBox.xml" with version "1.14-linux"
00:00:08.277259 nspr-2   Saving settings file "/home/alex/.config/VirtualBox/VirtualBox.xml" with version "1.14-linux"
00:00:13.842768 main     VirtualBox: object deletion starts
00:00:13.842814 main     ERROR [COM]: aRC=VBOX_E_OBJECT_IN_USE (0x80bb000c) aIID={ad47ad09-787b-44ab-b343-a082a3f2dfb1} aComponent={MediumWrap} aText={Medium '/home/alex/VirtualBox VMs/HackingDistro/HackingDistro.vdi' cannot be closed because it is still attached to 1 virtual machines}, preserve=false aResultDetail=0
00:00:13.842953 main     ERROR [COM]: aRC=VBOX_E_OBJECT_IN_USE (0x80bb000c) aIID={ad47ad09-787b-44ab-b343-a082a3f2dfb1} aComponent={MediumWrap} aText={Medium '/home/alex/VirtualBox VMs/Kali-Linux-2021.2-virtualbox-amd64/Kali-Linux-2021.2-virtualbox-amd64-disk001.vdi' cannot be closed because it is still attached to 1 virtual machines}, preserve=false aResultDetail=0
00:00:13.843053 main     ERROR [COM]: aRC=VBOX_E_OBJECT_IN_USE (0x80bb000c) aIID={ad47ad09-787b-44ab-b343-a082a3f2dfb1} aComponent={MediumWrap} aText={Medium '/home/alex/VirtualBox VMs/Mr Robot 1/mrRobot-disk1.vdi' cannot be closed because it is still attached to 1 virtual machines}, preserve=false aResultDetail=0
00:00:13.843343 main     HostDnsMonitor: shutting down ...
00:00:13.848833 main     HostDnsMonitor: shut down
00:00:14.155450 Watcher  ERROR [COM]: aRC=E_ACCESSDENIED (0x80070005) aIID={d0a0163f-e254-4e5b-a1f2-011cf991c38d} aComponent={VirtualBoxWrap} aText={The object is not ready}, preserve=false aResultDetail=0
00:00:18.848933 main     {00007f7390019010} HostPowerServiceLinux::~HostPowerServiceLinux: RTThreadWait() for 5000 ms failed with VERR_TIMEOUT
00:00:18.849156 main     VirtualBox: object deleted
